{ "height":50,
 "infinite":false,
 "layers":[
        {
         "draworder":"topdown",
         "name":"door",
         "objects":[
                {
                 "gid":492,
                 "height":16,
                 "id":17,
                 "name":"",
                 "rotation":0,
                 "type":"",
                 "visible":true,
                 "width":16,
                 "x":384,
                 "y":191
                }],
         "opacity":1,
         "properties":
            {
             "door":""
            },
         "propertytypes":
            {
             "door":"string"
            },
         "type":"objectgroup",
         "visible":true,
         "x":0,
         "y":0
        }, 
        {
         "data":[769, 770, 769, 770, 769, 770, 769, 770, 769, 770, 769, 770, 769, 770, 769, 770, 769, 770, 769, 770, 769, 770, 769, 770, 769, 770, 769, 770, 769, 770, 769, 770, 769, 770, 769, 770, 769, 770, 769, 770, 769, 770, 769, 770, 769, 770, 769, 770, 801, 802, 801, 802, 801, 802, 801, 802, 801, 802, 801, 802, 801, 802, 801, 802, 801, 802, 801, 802, 801, 802, 801, 802, 801, 802, 801, 802, 801, 802, 801, 802, 801, 802, 801, 802, 801, 802, 801, 802, 801, 802, 801, 802, 801, 802, 801, 802, 769, 770, 769, 770, 769, 770, 769, 770, 769, 770, 769, 770, 769, 770, 769, 770, 769, 770, 769, 770, 769, 770, 769, 770, 769, 770, 769, 770, 769, 770, 769, 770, 769, 770, 769, 770, 769, 770, 769, 770, 769, 770, 769, 770, 769, 770, 769, 770, 801, 802, 801, 802, 801, 802, 801, 802, 801, 802, 801, 802, 801, 802, 801, 802, 801, 802, 801, 802, 801, 802, 801, 802, 801, 802, 801, 802, 801, 802, 801, 802, 801, 802, 801, 802, 801, 802, 801, 802, 801, 802, 801, 802, 801, 802, 801, 802, 772, 719, 720, 721, 718, 718, 718, 718, 718, 718, 718, 718, 718, 718, 719, 720, 750, 751, 752, 753, 750, 751, 752, 753, 753, 753, 753, 753, 753, 753, 750, 751, 752, 753, 660, 660, 718, 718, 719, 720, 721, 721, 661, 662, 659, 660, 661, 706, 772, 719, 686, 687, 688, 721, 721, 721, 721, 721, 721, 721, 721, 721, 718, 718, 750, 750, 751, 752, 753, 692, 693, 694, 691, 692, 693, 694, 691, 692, 693, 694, 660, 660, 718, 718, 718, 750, 751, 752, 753, 753, 660, 660, 686, 687, 688, 706, 772, 718, 718, 719, 720, 718, 718, 718, 718, 718, 718, 718, 718, 718, 750, 750, 750, 751, 752, 753, 723, 724, 725, 726, 723, 724, 725, 726, 723, 724, 725, 726, 660, 660, 750, 750, 750, 750, 751, 752, 753, 660, 660, 660, 686, 687, 688, 706, 772, 750, 750, 751, 752, 750, 750, 750, 750, 750, 750, 750, 750, 750, 750, 751, 752, 753, 757, 758, 755, 756, 757, 758, 755, 756, 757, 758, 755, 756, 757, 758, 755, 756, 757, 758, 755, 756, 757, 758, 755, 756, 757, 758, 686, 687, 688, 706, 772, 660, 782, 783, 784, 0, 661, 662, 659, 660, 661, 662, 659, 660, 661, 662, 659, 660, 661, 662, 659, 660, 661, 662, 659, 660, 661, 662, 659, 660, 661, 662, 659, 660, 661, 662, 659, 660, 661, 662, 659, 660, 167, 662, 686, 687, 688, 706, 772, 692, 782, 783, 784, 366, 693, 694, 691, 692, 693, 694, 691, 692, 693, 694, 691, 692, 693, 694, 691, 692, 693, 694, 691, 692, 693, 694, 691, 692, 693, 694, 691, 692, 693, 694, 691, 692, 693, 694, 691, 692, 231, 694, 686, 687, 688, 706, 772, 724, 782, 783, 784, 366, 725, 726, 723, 724, 725, 726, 723, 724, 725, 726, 723, 724, 725, 726, 723, 724, 725, 726, 723, 724, 725, 726, 723, 724, 725, 726, 723, 724, 725, 726, 723, 724, 725, 726, 723, 724, 231, 726, 686, 687, 688, 706, 772, 756, 782, 783, 784, 430, 757, 758, 755, 756, 757, 758, 755, 756, 757, 758, 755, 756, 757, 758, 755, 756, 757, 758, 755, 756, 757, 758, 755, 756, 757, 758, 755, 756, 757, 758, 755, 756, 757, 758, 755, 756, 430, 686, 687, 688, 720, 706, 772, 660, 782, 783, 784, 706, 706, 706, 706, 706, 706, 706, 706, 706, 706, 706, 706, 706, 706, 706, 706, 706, 717, 662, 659, 690, 706, 706, 706, 706, 706, 706, 705, 706, 706, 706, 706, 706, 706, 705, 705, 706, 706, 686, 687, 688, 752, 706, 772, 692, 782, 783, 784, 705, 706, 706, 706, 706, 705, 706, 706, 706, 706, 706, 706, 706, 706, 706, 706, 706, 717, 694, 691, 690, 705, 706, 706, 706, 706, 706, 706, 706, 738, 738, 706, 706, 706, 737, 705, 705, 706, 686, 687, 688, 784, 706, 772, 686, 782, 783, 784, 705, 706, 738, 705, 706, 706, 706, 706, 706, 706, 706, 706, 706, 706, 706, 706, 774, 717, 726, 723, 690, 705, 705, 705, 705, 705, 705, 705, 705, 705, 705, 706, 738, 738, 737, 705, 705, 706, 686, 686, 687, 688, 706, 772, 718, 782, 783, 784, 705, 705, 706, 706, 706, 738, 738, 738, 738, 738, 706, 738, 738, 738, 738, 738, 806, 717, 758, 755, 690, 737, 737, 737, 737, 737, 737, 737, 737, 737, 705, 706, 706, 706, 737, 737, 705, 706, 686, 686, 687, 688, 706, 772, 750, 782, 783, 784, 705, 705, 706, 738, 738, 737, 737, 737, 737, 738, 738, 706, 738, 706, 706, 706, 774, 717, 662, 659, 690, 705, 706, 706, 706, 706, 706, 706, 706, 706, 706, 706, 738, 706, 737, 738, 737, 705, 686, 686, 687, 688, 706, 772, 782, 783, 784, 691, 705, 705, 706, 706, 706, 737, 737, 737, 737, 737, 738, 738, 738, 738, 738, 738, 806, 717, 694, 691, 690, 737, 738, 738, 738, 738, 738, 738, 738, 738, 738, 738, 705, 706, 738, 737, 738, 705, 686, 686, 687, 688, 706, 772, 782, 783, 784, 723, 705, 705, 706, 706, 705, 706, 653, 654, 654, 654, 654, 654, 654, 654, 654, 654, 654, 686, 726, 723, 686, 656, 656, 656, 656, 656, 656, 656, 656, 656, 656, 658, 705, 706, 738, 737, 738, 705, 686, 686, 686, 687, 706, 772, 782, 783, 784, 755, 705, 706, 706, 738, 706, 706, 2147484338, 755, 756, 757, 758, 755, 756, 757, 758, 755, 756, 757, 758, 755, 756, 757, 758, 755, 756, 757, 758, 755, 756, 757, 758, 2147484333, 705, 706, 705, 706, 738, 705, 686, 718, 686, 687, 706, 772, 782, 783, 784, 659, 705, 706, 738, 737, 738, 706, 2147484338, 659, 660, 661, 662, 659, 660, 661, 662, 659, 660, 661, 662, 659, 660, 661, 662, 659, 660, 661, 662, 659, 660, 661, 662, 2147484365, 705, 706, 737, 738, 705, 706, 686, 750, 686, 687, 706, 772, 782, 783, 784, 691, 705, 706, 705, 706, 706, 706, 2147484338, 691, 692, 693, 694, 691, 692, 693, 694, 691, 692, 693, 694, 691, 692, 693, 694, 691, 692, 693, 694, 691, 692, 693, 694, 2147484397, 705, 706, 737, 738, 705, 706, 686, 782, 686, 687, 706, 772, 782, 783, 784, 723, 705, 706, 705, 706, 706, 706, 2147484338, 723, 724, 725, 726, 723, 724, 725, 726, 723, 724, 725, 726, 723, 724, 725, 726, 723, 724, 725, 726, 723, 724, 725, 726, 2147484429, 705, 706, 737, 738, 705, 706, 686, 723, 686, 686, 706, 772, 782, 783, 784, 755, 705, 706, 705, 706, 738, 706, 2147484338, 755, 756, 757, 758, 755, 756, 757, 758, 755, 756, 757, 758, 755, 756, 757, 758, 755, 756, 757, 758, 755, 756, 757, 758, 2147484333, 705, 706, 737, 738, 705, 706, 758, 755, 718, 686, 706, 772, 782, 783, 784, 659, 705, 705, 706, 738, 738, 706, 2147484338, 659, 660, 661, 662, 659, 660, 661, 662, 686, 2684355250, 2684355250, 2684355250, 2684355250, 2684355250, 2684355250, 686, 659, 660, 661, 662, 659, 660, 661, 662, 2147484365, 705, 706, 737, 738, 706, 706, 662, 659, 750, 686, 706, 772, 782, 783, 784, 691, 705, 705, 706, 738, 738, 706, 2147484338, 691, 692, 693, 694, 691, 692, 693, 694, 690, 779, 779, 779, 779, 779, 779, 685, 691, 692, 693, 694, 691, 692, 693, 694, 2147484397, 705, 706, 738, 737, 738, 706, 694, 691, 782, 686, 706, 772, 782, 783, 784, 723, 705, 705, 706, 738, 738, 706, 2147484338, 723, 724, 725, 726, 723, 724, 725, 726, 690, 779, 779, 779, 779, 779, 779, 685, 723, 724, 725, 726, 723, 724, 725, 726, 2147484429, 705, 705, 705, 737, 738, 738, 726, 723, 724, 686, 706, 772, 782, 783, 784, 755, 705, 705, 706, 738, 738, 706, 2147484338, 755, 756, 757, 758, 755, 756, 757, 758, 690, 779, 779, 779, 779, 779, 779, 685, 755, 756, 757, 758, 755, 756, 757, 758, 2147484333, 705, 737, 705, 706, 737, 738, 758, 755, 756, 686, 706, 772, 782, 783, 784, 659, 705, 706, 738, 737, 738, 706, 2147484338, 659, 660, 661, 662, 659, 660, 661, 662, 686, 1610613426, 1610613426, 1610613426, 1610613426, 1610613426, 1610613426, 686, 659, 660, 661, 662, 659, 660, 661, 662, 2147484365, 705, 737, 705, 706, 737, 738, 662, 659, 660, 686, 706, 772, 782, 783, 784, 691, 705, 705, 705, 706, 738, 706, 2147484338, 691, 692, 693, 694, 691, 692, 693, 694, 691, 692, 693, 694, 691, 692, 693, 694, 691, 692, 693, 694, 691, 692, 693, 694, 2147484333, 705, 737, 705, 705, 737, 738, 694, 691, 692, 686, 706, 706, 782, 783, 784, 723, 705, 737, 705, 706, 738, 706, 2147484370, 723, 724, 725, 726, 723, 724, 725, 726, 723, 724, 725, 726, 723, 724, 725, 726, 723, 724, 725, 726, 723, 724, 725, 726, 2147484365, 737, 737, 737, 705, 737, 738, 726, 723, 686, 687, 706, 706, 782, 783, 784, 755, 705, 737, 705, 706, 738, 706, 2147484402, 755, 756, 757, 758, 755, 756, 757, 758, 755, 756, 757, 758, 755, 756, 757, 758, 755, 756, 757, 758, 755, 756, 757, 758, 2147484397, 737, 738, 738, 705, 737, 738, 758, 755, 686, 687, 706, 706, 782, 783, 784, 659, 705, 705, 706, 706, 738, 706, 536871570, 3221226126, 3221226126, 3221226126, 3221226126, 3221226126, 3221226126, 3221226126, 3221226126, 3221226126, 3221226126, 718, 662, 659, 750, 3221226126, 3221226126, 3221226126, 3221226126, 3221226126, 3221226126, 3221226126, 3221226126, 3221226126, 3221226126, 2684355218, 705, 705, 705, 737, 737, 738, 662, 659, 686, 687, 706, 706, 782, 783, 784, 691, 705, 705, 706, 738, 738, 705, 705, 705, 705, 705, 705, 705, 705, 705, 705, 705, 706, 685, 694, 691, 3221226253, 705, 706, 705, 705, 705, 705, 705, 705, 705, 705, 705, 737, 737, 737, 737, 738, 706, 694, 691, 686, 687, 706, 706, 782, 783, 784, 723, 705, 705, 706, 737, 738, 737, 737, 737, 705, 705, 705, 706, 737, 705, 706, 705, 706, 717, 726, 723, 3221226221, 705, 705, 737, 705, 705, 705, 705, 705, 705, 705, 705, 705, 705, 706, 705, 706, 738, 726, 723, 686, 687, 706, 706, 783, 784, 758, 755, 705, 706, 706, 737, 738, 706, 706, 706, 706, 706, 706, 706, 706, 706, 706, 705, 706, 685, 758, 755, 3221226253, 705, 737, 705, 737, 737, 737, 737, 737, 737, 737, 737, 737, 737, 738, 705, 706, 706, 758, 686, 687, 688, 706, 706, 783, 784, 688, 659, 705, 705, 705, 705, 705, 705, 705, 705, 706, 738, 738, 738, 738, 738, 738, 706, 706, 717, 662, 659, 3221226221, 705, 737, 737, 737, 738, 706, 706, 706, 706, 706, 706, 706, 706, 706, 706, 706, 738, 662, 686, 687, 688, 706, 706, 783, 784, 720, 691, 737, 737, 737, 737, 737, 737, 737, 737, 738, 738, 738, 738, 738, 738, 738, 738, 738, 749, 694, 691, 3221226189, 737, 737, 737, 738, 738, 738, 738, 738, 738, 738, 738, 738, 738, 738, 738, 706, 706, 694, 686, 687, 688, 706, 706, 783, 784, 752, 688, 706, 706, 706, 706, 706, 706, 706, 706, 706, 706, 706, 706, 706, 706, 706, 706, 706, 781, 726, 723, 3221226157, 706, 706, 706, 706, 706, 706, 706, 706, 706, 706, 706, 706, 706, 706, 706, 737, 738, 726, 686, 686, 687, 706, 706, 782, 783, 784, 720, 720, 720, 720, 720, 720, 720, 720, 720, 720, 720, 720, 720, 720, 720, 688, 688, 688, 688, 688, 688, 688, 688, 688, 688, 688, 688, 688, 688, 688, 688, 688, 688, 688, 688, 688, 688, 688, 688, 688, 688, 688, 688, 706, 706, 782, 783, 784, 752, 752, 752, 752, 752, 752, 752, 752, 752, 752, 752, 752, 752, 752, 752, 720, 720, 720, 720, 720, 720, 720, 720, 720, 720, 720, 720, 720, 720, 720, 720, 720, 720, 720, 720, 720, 720, 720, 720, 720, 720, 720, 720, 706, 772, 782, 783, 784, 784, 784, 784, 784, 784, 784, 784, 784, 784, 784, 784, 784, 784, 784, 784, 752, 752, 752, 752, 752, 752, 752, 752, 752, 752, 752, 752, 752, 752, 752, 752, 752, 752, 752, 752, 752, 752, 752, 752, 752, 752, 752, 752, 706, 772, 724, 725, 726, 723, 724, 725, 726, 723, 724, 725, 726, 723, 724, 725, 726, 723, 782, 783, 784, 784, 784, 784, 784, 784, 784, 784, 784, 784, 784, 784, 784, 784, 784, 784, 784, 784, 784, 784, 784, 784, 784, 784, 784, 784, 784, 784, 706, 772, 756, 757, 758, 755, 756, 757, 758, 755, 756, 757, 758, 755, 756, 757, 758, 755, 756, 757, 758, 755, 756, 757, 758, 755, 756, 757, 758, 755, 756, 757, 758, 755, 756, 757, 758, 755, 756, 757, 758, 755, 756, 757, 758, 755, 756, 757, 706, 772, 660, 661, 662, 659, 660, 661, 662, 659, 660, 661, 662, 659, 660, 661, 662, 659, 660, 661, 662, 659, 660, 661, 662, 659, 660, 661, 662, 659, 660, 661, 662, 659, 660, 661, 662, 659, 660, 661, 662, 659, 660, 661, 662, 659, 660, 661, 706, 772, 692, 693, 694, 691, 692, 693, 694, 691, 692, 693, 694, 691, 692, 693, 694, 691, 692, 693, 694, 691, 692, 444, 445, 446, 447, 693, 694, 691, 692, 693, 694, 691, 692, 693, 694, 691, 692, 693, 694, 691, 692, 693, 694, 691, 692, 693, 706, 772, 724, 725, 726, 723, 724, 725, 726, 723, 724, 725, 726, 723, 724, 725, 726, 723, 724, 725, 726, 723, 724, 476, 477, 478, 479, 725, 726, 723, 724, 725, 726, 723, 724, 725, 726, 723, 724, 725, 726, 723, 724, 725, 726, 723, 724, 725, 706, 772, 756, 757, 758, 755, 756, 757, 758, 755, 756, 757, 758, 755, 756, 757, 758, 755, 756, 757, 758, 755, 756, 508, 509, 510, 511, 757, 758, 755, 756, 757, 758, 755, 756, 757, 758, 755, 756, 757, 758, 755, 756, 757, 758, 755, 756, 757, 706, 772, 660, 661, 662, 659, 660, 661, 662, 659, 660, 661, 662, 659, 660, 661, 662, 659, 660, 661, 662, 659, 660, 540, 541, 542, 543, 661, 662, 659, 660, 661, 662, 659, 660, 661, 662, 659, 660, 661, 662, 659, 660, 661, 662, 659, 660, 661, 706, 772, 692, 693, 694, 691, 692, 693, 694, 691, 692, 693, 694, 691, 692, 693, 694, 691, 692, 693, 694, 691, 692, 572, 573, 574, 575, 693, 694, 691, 692, 693, 694, 691, 692, 693, 694, 691, 692, 693, 694, 691, 692, 693, 694, 691, 692, 693, 706],
         "height":50,
         "name":"floor",
         "opacity":1,
         "type":"tilelayer",
         "visible":true,
         "width":48,
         "x":0,
         "y":0
        }, 
        {
         "data":[0, 0, 0, 0, 0, 0, 0, 0, 0, 0, 0, 0, 0, 0, 0, 0, 0, 0, 0, 0, 0, 0, 0, 0, 0, 0, 0, 0, 0, 0, 0, 0, 0, 0, 0, 0, 0, 0, 0, 0, 0, 0, 0, 0, 0, 0, 0, 0, 0, 0, 0, 0, 0, 0, 0, 0, 0, 0, 0, 0, 0, 0, 0, 0, 0, 0, 0, 0, 0, 0, 0, 0, 0, 0, 0, 0, 0, 0, 0, 0, 0, 0, 0, 0, 0, 0, 0, 0, 0, 0, 0, 0, 0, 0, 0, 0, 0, 0, 0, 0, 0, 0, 0, 0, 0, 0, 0, 0, 0, 0, 0, 0, 0, 0, 0, 0, 0, 0, 0, 0, 0, 0, 0, 0, 0, 0, 0, 0, 0, 0, 0, 0, 0, 0, 0, 0, 0, 0, 0, 0, 0, 0, 0, 0, 0, 0, 0, 0, 0, 0, 0, 0, 0, 0, 0, 0, 0, 0, 0, 0, 0, 0, 0, 0, 0, 0, 0, 0, 0, 0, 0, 0, 0, 0, 0, 0, 0, 0, 0, 0, 0, 0, 0, 0, 0, 0, 0, 0, 0, 0, 0, 0, 0, 0, 0, 0, 0, 0, 0, 0, 0, 0, 0, 0, 0, 0, 0, 0, 0, 0, 0, 0, 0, 0, 0, 0, 0, 0, 0, 0, 0, 0, 0, 0, 0, 0, 0, 0, 0, 0, 0, 0, 0, 0, 0, 0, 0, 0, 0, 0, 0, 0, 0, 0, 0, 0, 0, 0, 0, 0, 0, 0, 0, 0, 0, 0, 0, 0, 0, 0, 0, 0, 0, 0, 0, 0, 0, 0, 0, 0, 0, 0, 0, 0, 0, 0, 0, 0, 0, 0, 0, 0, 0, 0, 0, 0, 0, 0, 0, 0, 0, 0, 0, 0, 0, 0, 0, 0, 0, 0, 0, 0, 0, 0, 0, 0, 0, 0, 0, 0, 0, 0, 0, 0, 0, 0, 0, 0, 0, 0, 0, 0, 0, 0, 0, 0, 0, 0, 0, 0, 0, 0, 0, 0, 0, 0, 0, 0, 0, 0, 0, 0, 0, 0, 0, 0, 0, 0, 0, 0, 0, 0, 0, 0, 0, 0, 0, 0, 0, 0, 0, 0, 0, 0, 0, 0, 0, 0, 0, 0, 0, 0, 0, 0, 0, 0, 0, 0, 0, 0, 0, 0, 0, 0, 0, 0, 0, 0, 0, 0, 0, 0, 0, 0, 0, 0, 0, 0, 0, 0, 0, 0, 0, 0, 0, 0, 0, 395, 396, 0, 0, 0, 0, 0, 0, 0, 0, 0, 0, 0, 0, 0, 0, 0, 0, 0, 0, 0, 0, 0, 0, 0, 0, 0, 0, 0, 83, 84, 0, 0, 0, 0, 0, 0, 0, 0, 0, 0, 0, 0, 0, 0, 0, 0, 0, 427, 428, 0, 0, 0, 0, 0, 0, 0, 0, 0, 0, 0, 0, 0, 0, 0, 0, 0, 3221225588, 3221225587, 0, 0, 0, 0, 0, 0, 0, 0, 83, 84, 0, 0, 0, 0, 0, 0, 0, 0, 0, 0, 0, 0, 0, 0, 0, 0, 0, 459, 460, 0, 0, 0, 0, 0, 0, 0, 0, 0, 0, 0, 0, 0, 0, 0, 0, 0, 3221225588, 3221225587, 0, 0, 0, 0, 0, 0, 0, 0, 83, 84, 398, 398, 398, 398, 398, 398, 398, 398, 398, 398, 398, 398, 398, 398, 398, 398, 398, 491, 492, 398, 398, 398, 398, 398, 398, 398, 398, 398, 398, 398, 398, 398, 398, 398, 398, 398, 3221225588, 3221225587, 0, 0, 0, 0, 0, 0, 0, 0, 83, 84, 0, 0, 0, 0, 0, 0, 0, 0, 0, 0, 0, 0, 0, 0, 0, 0, 0, 0, 0, 0, 0, 0, 0, 0, 0, 0, 0, 0, 0, 0, 0, 0, 0, 0, 0, 0, 3221225588, 3221225587, 0, 0, 0, 0, 0, 0, 0, 0, 83, 84, 0, 0, 0, 0, 0, 0, 0, 0, 0, 0, 0, 0, 0, 0, 0, 0, 0, 0, 0, 0, 0, 0, 0, 0, 0, 0, 0, 0, 0, 0, 0, 0, 0, 0, 0, 0, 3221225588, 3221225587, 0, 0, 0, 0, 0, 0, 0, 0, 83, 84, 0, 0, 0, 0, 0, 0, 0, 0, 0, 0, 0, 0, 0, 0, 0, 0, 0, 0, 0, 0, 0, 0, 0, 0, 0, 0, 0, 0, 0, 0, 0, 0, 0, 0, 0, 0, 3221225588, 3221225587, 0, 0, 0, 0, 0, 0, 0, 0, 83, 84, 0, 0, 0, 0, 0, 0, 0, 0, 0, 0, 0, 0, 0, 0, 0, 0, 0, 0, 0, 0, 0, 0, 0, 0, 0, 0, 0, 0, 0, 0, 0, 0, 0, 0, 0, 0, 3221225588, 3221225587, 0, 0, 0, 0, 0, 0, 0, 0, 83, 84, 0, 0, 0, 0, 0, 0, 0, 0, 0, 0, 0, 0, 975, 976, 977, 978, 0, 0, 0, 0, 0, 0, 0, 0, 0, 0, 0, 0, 0, 861, 862, 0, 0, 0, 0, 0, 3221225588, 3221225587, 0, 0, 0, 0, 0, 0, 0, 0, 83, 84, 0, 0, 0, 0, 0, 0, 0, 0, 0, 0, 0, 0, 1007, 1008, 1009, 1010, 0, 0, 0, 0, 0, 0, 0, 0, 0, 0, 0, 0, 0, 893, 894, 0, 0, 0, 0, 0, 3221225588, 3221225587, 0, 0, 0, 0, 0, 0, 0, 0, 83, 84, 0, 0, 0, 0, 583, 584, 585, 586, 641, 642, 643, 644, 587, 588, 525, 526, 0, 0, 0, 0, 519, 520, 521, 522, 641, 642, 643, 644, 589, 590, 0, 0, 0, 0, 0, 0, 3221225588, 3221225587, 0, 0, 0, 0, 0, 0, 0, 0, 83, 84, 0, 0, 0, 0, 615, 616, 617, 618, 673, 674, 675, 676, 619, 620, 557, 558, 0, 0, 0, 0, 551, 552, 553, 554, 673, 674, 675, 676, 621, 622, 0, 0, 0, 0, 0, 0, 3221225588, 3221225587, 0, 0, 0, 0, 0, 0, 0, 0, 83, 84, 0, 0, 0, 0, 0, 0, 0, 0, 0, 0, 0, 0, 0, 0, 0, 0, 0, 0, 0, 0, 0, 0, 0, 0, 0, 0, 0, 0, 0, 0, 0, 0, 0, 0, 0, 0, 3221225588, 3221225587, 0, 0, 0, 0, 0, 0, 0, 0, 83, 84, 0, 0, 0, 0, 0, 0, 0, 0, 0, 0, 0, 0, 0, 0, 0, 0, 0, 0, 0, 0, 0, 0, 0, 0, 0, 0, 0, 0, 0, 0, 0, 0, 0, 0, 0, 0, 3221225588, 3221225587, 0, 0, 0, 0, 0, 0, 0, 0, 83, 84, 0, 0, 0, 0, 0, 0, 0, 0, 0, 0, 0, 0, 0, 0, 0, 0, 0, 0, 0, 0, 0, 0, 0, 0, 0, 0, 0, 0, 0, 0, 0, 0, 0, 0, 0, 0, 3221225588, 3221225587, 0, 0, 0, 0, 0, 0, 0, 0, 83, 84, 0, 0, 0, 0, 0, 0, 0, 0, 0, 0, 0, 0, 0, 0, 0, 0, 0, 0, 0, 0, 0, 0, 0, 0, 0, 0, 0, 0, 0, 0, 0, 0, 0, 0, 0, 0, 3221225588, 3221225587, 0, 0, 0, 0, 0, 0, 0, 0, 83, 84, 0, 0, 0, 0, 0, 0, 0, 0, 0, 0, 0, 0, 0, 0, 0, 0, 0, 0, 0, 0, 0, 0, 0, 0, 0, 0, 0, 0, 0, 0, 0, 951, 952, 0, 0, 0, 3221225588, 3221225587, 0, 0, 0, 0, 0, 0, 0, 0, 83, 84, 0, 0, 0, 985, 986, 0, 0, 0, 0, 0, 0, 0, 0, 0, 0, 0, 825, 826, 827, 828, 0, 0, 0, 0, 0, 0, 0, 0, 0, 0, 0, 983, 984, 0, 0, 0, 3221225588, 3221225587, 0, 0, 0, 0, 0, 0, 0, 0, 83, 84, 0, 0, 0, 1017, 1018, 0, 0, 0, 0, 0, 0, 0, 0, 0, 0, 0, 857, 858, 859, 860, 0, 0, 0, 0, 0, 0, 0, 0, 0, 0, 0, 1015, 1016, 0, 0, 0, 3221225588, 3221225587, 0, 0, 0, 0, 0, 0, 0, 0, 83, 84, 0, 0, 0, 0, 0, 0, 0, 0, 0, 0, 0, 0, 0, 0, 0, 0, 889, 890, 891, 892, 0, 0, 0, 0, 0, 0, 0, 0, 0, 0, 0, 0, 0, 0, 0, 0, 3221225588, 3221225587, 0, 0, 0, 0, 0, 0, 0, 0, 83, 84, 0, 0, 0, 0, 0, 0, 0, 0, 0, 0, 0, 0, 0, 0, 0, 0, 0, 0, 0, 0, 0, 0, 0, 0, 0, 0, 0, 0, 0, 0, 0, 0, 0, 0, 0, 0, 3221225588, 3221225587, 0, 0, 0, 0, 0, 0, 0, 0, 83, 84, 0, 0, 0, 0, 0, 0, 0, 0, 0, 0, 0, 0, 0, 0, 0, 0, 0, 0, 0, 0, 0, 0, 0, 0, 0, 0, 0, 0, 0, 0, 0, 0, 0, 0, 0, 0, 3221225588, 3221225587, 0, 0, 0, 0, 0, 0, 0, 0, 83, 84, 0, 0, 0, 0, 0, 0, 0, 0, 0, 0, 0, 0, 0, 0, 0, 0, 0, 0, 0, 0, 0, 0, 0, 0, 0, 0, 0, 0, 0, 0, 0, 0, 0, 0, 0, 0, 3221225588, 3221225587, 0, 0, 0, 0, 0, 0, 0, 0, 83, 84, 0, 0, 0, 0, 0, 0, 0, 0, 0, 0, 0, 0, 0, 0, 831, 832, 0, 0, 0, 0, 831, 832, 0, 0, 0, 0, 0, 0, 0, 0, 0, 0, 0, 0, 0, 0, 3221225588, 3221225587, 0, 0, 0, 0, 0, 0, 0, 0, 83, 84, 0, 0, 0, 0, 0, 0, 0, 0, 0, 0, 0, 0, 0, 0, 863, 864, 0, 0, 0, 0, 863, 864, 0, 0, 0, 0, 0, 0, 0, 0, 0, 0, 0, 0, 0, 0, 3221225588, 3221225587, 0, 0, 0, 0, 0, 0, 0, 0, 83, 84, 0, 0, 0, 0, 0, 0, 0, 0, 0, 0, 0, 0, 0, 0, 895, 896, 0, 0, 0, 0, 895, 896, 0, 0, 0, 0, 0, 0, 0, 0, 0, 0, 0, 0, 0, 0, 3221225588, 3221225587, 0, 0, 0, 0, 0, 0, 0, 0, 83, 84, 0, 0, 0, 0, 0, 0, 0, 0, 0, 0, 0, 0, 0, 0, 0, 0, 0, 0, 0, 0, 0, 0, 0, 0, 0, 0, 0, 0, 0, 0, 0, 0, 0, 0, 0, 0, 3221225588, 3221225587, 0, 0, 0, 0, 0, 0, 0, 0, 83, 84, 0, 0, 0, 0, 0, 0, 0, 0, 0, 0, 0, 0, 0, 0, 0, 0, 0, 0, 0, 0, 0, 0, 0, 0, 0, 0, 0, 0, 0, 0, 0, 0, 0, 0, 0, 0, 3221225588, 3221225587, 0, 0, 0, 0, 0, 0, 0, 0, 83, 84, 0, 0, 0, 0, 0, 0, 0, 0, 0, 0, 0, 0, 0, 0, 0, 0, 0, 0, 0, 0, 0, 0, 0, 0, 0, 0, 0, 0, 0, 0, 0, 0, 0, 0, 0, 0, 3221225588, 3221225587, 0, 0, 0, 0, 0, 0, 0, 0, 83, 84, 0, 0, 0, 0, 0, 0, 0, 0, 0, 0, 0, 0, 0, 0, 0, 0, 0, 0, 0, 0, 0, 0, 0, 0, 0, 0, 0, 0, 0, 0, 0, 0, 0, 0, 0, 0, 3221225588, 3221225587, 0, 0, 0, 0, 0, 0, 0, 0, 83, 84, 0, 0, 0, 0, 0, 0, 0, 0, 0, 0, 0, 0, 0, 0, 0, 0, 0, 0, 0, 0, 0, 0, 0, 0, 0, 0, 0, 0, 0, 0, 0, 0, 0, 0, 0, 0, 3221225588, 3221225587, 0, 0, 0, 0, 0, 0, 0, 0, 115, 116, 0, 0, 0, 0, 0, 0, 0, 0, 0, 0, 0, 0, 0, 0, 0, 0, 0, 0, 0, 0, 0, 0, 0, 0, 0, 0, 0, 0, 0, 0, 0, 0, 0, 0, 0, 0, 3221225556, 3221225555, 0, 0, 0, 0, 0, 0, 0, 0, 0, 0, 0, 0, 0, 0, 0, 0, 0, 0, 0, 0, 0, 0, 0, 0, 0, 0, 0, 0, 0, 0, 0, 0, 0, 0, 0, 0, 0, 0, 0, 0, 0, 0, 0, 0, 0, 0, 0, 0, 0, 0, 0, 0, 0, 0, 0, 0, 0, 259, 259, 259, 259, 259, 259, 259, 259, 259, 259, 259, 259, 259, 259, 259, 259, 259, 259, 259, 259, 259, 259, 259, 259, 259, 259, 259, 259, 259, 259, 259, 259, 259, 259, 259, 259, 259, 260, 0, 0, 0, 0, 0, 0, 0, 0, 0, 0, 0, 0, 0, 0, 0, 0, 0, 0, 0, 0, 0, 0, 0, 0, 0, 0, 0, 0, 0, 0, 0, 0, 0, 0, 0, 0, 0, 0, 0, 0, 0, 0, 0, 0, 0, 0, 0, 0, 0, 0, 0, 0, 0, 0, 0, 0, 0, 0, 0, 0, 0, 0, 0, 0, 0, 0, 0, 0, 0, 0, 0, 0, 0, 0, 0, 0, 0, 0, 0, 0, 0, 0, 0, 0, 0, 0, 0, 0, 0, 0, 0, 0, 0, 0, 0, 0, 0, 0, 0, 0, 0, 0, 0, 0, 0, 0, 0, 0, 0, 0, 0, 0, 0, 0, 0, 0, 0, 0, 0, 0, 0, 0, 0, 0, 0, 0, 0, 0, 0, 0, 0, 0, 0, 0, 0, 0, 0, 0, 0, 0, 0, 0, 0, 0, 0, 0, 0, 0, 0, 0, 0, 0, 0, 0, 0, 0, 0, 0, 0, 0, 0, 0, 0, 0, 0, 0, 0, 0, 0, 0, 0, 0, 0, 0, 0, 0, 0, 0, 0, 0, 0, 0, 0, 0, 0, 0, 0, 0, 0, 0, 0, 0, 0, 0, 0, 0, 0, 0, 0, 0, 0, 0, 0, 0, 0, 0, 0, 0, 0, 0, 0, 0, 0, 0, 0, 0, 0, 0, 0, 0, 0, 0, 0, 0, 0, 0, 0, 0, 0, 0, 0, 0, 0, 0, 0, 0, 0, 0, 0, 0, 0, 0, 0, 0, 0, 0, 0, 0, 0, 0, 0, 0, 0, 0, 0, 0, 0, 0, 0, 0, 0, 0, 0, 0, 0, 0, 0, 0, 0, 0, 0, 0, 0, 0, 0, 0, 0, 0, 0, 0, 0, 0, 0, 0, 0, 0, 0, 0, 0, 0, 0, 0, 0, 0, 0, 0, 0, 0, 0, 0, 0, 0, 0, 0, 0, 0, 0, 0, 0, 0, 0, 0, 0, 0, 0, 0, 0, 0, 0, 0, 0, 0, 0, 0, 0, 0, 0, 0, 0, 0, 0, 0, 0, 0, 0, 0, 0, 0, 0, 0, 0, 0, 0, 0, 0, 0, 0, 0, 0, 0, 0, 0, 0, 0, 0, 0, 0, 0, 0, 0, 0, 0, 0, 0, 0, 0, 0, 0, 0, 0, 0, 0, 0, 0, 0, 0, 0, 0, 0, 0, 0, 0, 0, 0, 0, 0, 0, 0, 0],
         "height":50,
         "name":"collision",
         "opacity":1,
         "type":"tilelayer",
         "visible":true,
         "width":48,
         "x":0,
         "y":0
        }, 
        {
         "data":[0, 0, 0, 0, 0, 0, 0, 0, 0, 0, 0, 0, 0, 0, 0, 0, 0, 0, 0, 0, 0, 0, 0, 0, 0, 0, 0, 0, 0, 0, 0, 0, 0, 0, 0, 0, 0, 0, 0, 0, 0, 0, 0, 0, 0, 0, 0, 0, 0, 0, 0, 0, 0, 0, 0, 0, 0, 0, 0, 0, 0, 0, 0, 0, 0, 0, 0, 0, 0, 0, 0, 0, 0, 0, 0, 0, 0, 0, 0, 0, 0, 0, 0, 0, 0, 0, 0, 0, 0, 0, 0, 0, 0, 0, 0, 0, 13, 14, 71, 72, 71, 72, 71, 72, 71, 72, 71, 72, 71, 72, 71, 72, 71, 72, 71, 72, 71, 72, 71, 72, 71, 72, 71, 72, 71, 72, 71, 72, 71, 72, 71, 72, 71, 72, 71, 72, 71, 72, 71, 72, 71, 72, 19, 20, 45, 46, 103, 104, 103, 104, 103, 104, 103, 104, 103, 104, 103, 104, 103, 104, 103, 104, 103, 104, 103, 104, 103, 104, 103, 104, 103, 104, 103, 104, 103, 104, 103, 104, 103, 104, 103, 104, 103, 104, 103, 104, 103, 104, 103, 104, 51, 52, 109, 110, 0, 686, 687, 688, 689, 686, 687, 688, 689, 686, 687, 688, 689, 686, 687, 688, 689, 686, 687, 688, 689, 686, 687, 688, 689, 686, 687, 688, 689, 686, 687, 688, 689, 686, 687, 688, 689, 686, 687, 688, 689, 686, 687, 0, 115, 116, 77, 78, 0, 718, 719, 720, 721, 718, 719, 720, 721, 718, 719, 720, 721, 718, 719, 720, 721, 718, 719, 720, 721, 718, 719, 720, 721, 718, 719, 720, 721, 718, 719, 720, 721, 718, 719, 720, 721, 718, 719, 720, 721, 718, 719, 0, 83, 84, 109, 110, 0, 0, 0, 0, 0, 71, 72, 71, 72, 71, 72, 71, 72, 71, 72, 71, 72, 71, 72, 135, 136, 137, 138, 71, 72, 71, 72, 71, 72, 71, 72, 71, 72, 71, 72, 71, 72, 71, 72, 0, 0, 0, 0, 0, 115, 116, 77, 78, 0, 0, 13, 14, 103, 104, 104, 103, 104, 103, 104, 103, 104, 103, 104, 103, 104, 103, 104, 167, 168, 169, 170, 103, 104, 103, 104, 103, 104, 103, 104, 103, 104, 103, 104, 103, 104, 103, 103, 104, 19, 20, 0, 0, 83, 84, 109, 110, 0, 0, 45, 46, 199, 200, 201, 202, 203, 204, 199, 200, 201, 202, 203, 204, 199, 200, 201, 202, 203, 0, 0, 200, 201, 202, 203, 204, 199, 200, 201, 202, 203, 204, 199, 200, 201, 202, 203, 204, 51, 52, 0, 0, 115, 116, 77, 78, 0, 0, 0, 0, 398, 398, 398, 398, 398, 398, 398, 398, 398, 398, 398, 398, 398, 398, 398, 398, 398, 0, 0, 398, 398, 398, 398, 398, 398, 398, 398, 398, 398, 398, 398, 398, 398, 398, 398, 398, 0, 0, 0, 0, 83, 84, 109, 110, 0, 0, 0, 0, 399, 399, 399, 399, 399, 399, 399, 399, 399, 399, 399, 399, 399, 399, 398, 398, 399, 0, 0, 399, 399, 399, 399, 399, 399, 399, 399, 399, 399, 399, 399, 399, 399, 399, 399, 400, 0, 0, 0, 0, 115, 116, 77, 78, 0, 0, 0, 0, 431, 431, 431, 431, 431, 431, 431, 431, 431, 431, 431, 431, 431, 431, 431, 432, 431, 0, 0, 431, 431, 431, 431, 431, 431, 431, 431, 431, 431, 431, 431, 431, 431, 431, 431, 432, 0, 0, 0, 0, 83, 84, 109, 110, 0, 0, 0, 0, 0, 0, 0, 0, 0, 0, 0, 0, 0, 0, 0, 0, 0, 0, 0, 0, 0, 0, 0, 0, 0, 0, 0, 0, 0, 0, 0, 0, 0, 733, 734, 0, 0, 0, 0, 0, 0, 0, 0, 0, 115, 116, 77, 78, 0, 0, 0, 0, 0, 0, 0, 0, 0, 0, 0, 0, 0, 0, 0, 0, 0, 0, 0, 0, 0, 0, 0, 0, 0, 0, 0, 0, 0, 0, 0, 0, 0, 765, 766, 0, 0, 0, 0, 0, 0, 0, 0, 0, 83, 84, 109, 110, 0, 0, 0, 0, 0, 0, 0, 0, 0, 0, 0, 0, 0, 0, 0, 0, 911, 912, 913, 914, 0, 0, 0, 0, 0, 0, 0, 0, 0, 0, 0, 0, 0, 797, 798, 0, 0, 0, 0, 0, 0, 0, 0, 0, 115, 116, 77, 78, 0, 0, 0, 0, 0, 0, 0, 0, 0, 0, 0, 0, 0, 0, 0, 0, 943, 944, 945, 946, 0, 0, 0, 0, 0, 0, 0, 0, 0, 0, 0, 0, 0, 829, 830, 0, 0, 0, 0, 0, 0, 0, 0, 0, 83, 84, 109, 110, 0, 0, 0, 0, 0, 0, 0, 0, 0, 0, 0, 0, 577, 578, 579, 580, 0, 0, 0, 0, 0, 0, 0, 0, 0, 0, 0, 0, 577, 578, 579, 580, 0, 0, 0, 0, 0, 0, 0, 0, 0, 0, 0, 0, 115, 116, 77, 78, 0, 0, 0, 0, 0, 0, 0, 0, 0, 0, 0, 0, 609, 610, 611, 612, 0, 0, 0, 0, 0, 0, 0, 0, 0, 0, 0, 0, 609, 610, 611, 612, 0, 0, 0, 0, 0, 0, 0, 0, 0, 0, 0, 0, 83, 84, 109, 110, 0, 0, 0, 0, 0, 0, 0, 0, 0, 0, 0, 0, 0, 0, 0, 0, 0, 0, 0, 0, 0, 0, 0, 0, 0, 0, 0, 0, 0, 0, 0, 0, 0, 0, 0, 0, 0, 0, 0, 0, 0, 0, 0, 0, 115, 116, 77, 78, 0, 0, 0, 0, 0, 0, 0, 0, 0, 0, 0, 0, 0, 0, 0, 0, 0, 0, 0, 0, 0, 0, 0, 0, 0, 0, 0, 0, 0, 0, 0, 0, 0, 0, 0, 0, 0, 0, 0, 0, 0, 0, 0, 0, 83, 84, 109, 110, 0, 0, 0, 0, 0, 0, 0, 0, 0, 0, 0, 0, 0, 0, 0, 0, 0, 0, 0, 0, 665, 666, 667, 668, 0, 0, 0, 0, 0, 0, 0, 0, 0, 0, 0, 0, 0, 0, 0, 0, 0, 0, 0, 0, 115, 116, 77, 78, 0, 0, 0, 0, 0, 0, 0, 0, 0, 0, 0, 0, 0, 0, 0, 0, 0, 0, 0, 0, 697, 698, 699, 700, 0, 0, 0, 0, 0, 0, 0, 0, 0, 0, 0, 855, 856, 0, 0, 0, 0, 0, 0, 0, 83, 84, 109, 110, 0, 0, 0, 0, 0, 0, 0, 0, 0, 0, 0, 0, 0, 0, 0, 0, 0, 0, 0, 0, 729, 730, 731, 732, 0, 0, 0, 0, 0, 0, 0, 0, 0, 0, 0, 887, 888, 0, 0, 0, 0, 0, 0, 0, 115, 116, 77, 78, 0, 0, 0, 0, 0, 0, 0, 921, 922, 0, 0, 0, 0, 0, 0, 0, 0, 0, 0, 0, 761, 762, 763, 764, 0, 0, 0, 0, 0, 0, 0, 0, 0, 0, 0, 919, 920, 0, 0, 0, 0, 0, 0, 0, 83, 84, 109, 110, 0, 0, 0, 0, 0, 0, 0, 953, 954, 0, 0, 0, 0, 0, 0, 0, 0, 0, 0, 0, 793, 794, 795, 796, 0, 0, 0, 0, 0, 0, 0, 0, 0, 0, 0, 0, 0, 0, 0, 0, 0, 0, 0, 0, 115, 116, 77, 78, 0, 0, 0, 0, 0, 0, 0, 0, 0, 0, 0, 0, 0, 0, 0, 0, 0, 0, 0, 0, 0, 0, 0, 0, 0, 0, 0, 0, 0, 0, 0, 0, 0, 0, 0, 0, 0, 0, 0, 0, 0, 0, 0, 0, 83, 84, 109, 110, 0, 0, 0, 0, 0, 0, 0, 0, 0, 0, 0, 0, 0, 0, 0, 0, 0, 0, 0, 0, 0, 0, 0, 0, 0, 0, 0, 0, 0, 0, 0, 0, 0, 0, 0, 0, 0, 0, 0, 0, 0, 0, 0, 0, 115, 116, 77, 78, 0, 0, 0, 0, 0, 0, 0, 0, 0, 0, 0, 0, 0, 0, 0, 0, 0, 0, 0, 0, 0, 0, 0, 0, 0, 0, 0, 0, 0, 0, 0, 0, 0, 0, 0, 0, 0, 0, 0, 0, 0, 0, 0, 0, 83, 84, 109, 110, 0, 0, 0, 0, 0, 0, 0, 0, 0, 0, 0, 0, 0, 0, 0, 0, 0, 0, 735, 736, 0, 0, 0, 0, 735, 736, 0, 0, 0, 0, 0, 0, 0, 0, 0, 0, 0, 0, 0, 0, 0, 0, 0, 0, 115, 116, 77, 78, 0, 0, 0, 0, 0, 0, 0, 0, 0, 0, 0, 0, 0, 0, 0, 0, 0, 0, 767, 768, 0, 0, 0, 0, 767, 768, 0, 0, 0, 0, 0, 0, 0, 0, 0, 0, 0, 0, 0, 0, 0, 0, 0, 0, 83, 84, 109, 110, 0, 0, 0, 0, 0, 0, 0, 0, 0, 0, 0, 0, 0, 0, 0, 0, 0, 0, 799, 800, 0, 0, 0, 0, 799, 800, 0, 0, 0, 0, 0, 0, 0, 0, 0, 0, 0, 0, 0, 0, 0, 0, 0, 0, 115, 116, 77, 78, 0, 0, 0, 0, 0, 0, 0, 0, 0, 0, 0, 0, 0, 0, 0, 0, 0, 0, 0, 0, 0, 0, 0, 0, 0, 0, 0, 0, 0, 0, 0, 0, 0, 0, 0, 0, 0, 0, 0, 0, 0, 0, 0, 0, 83, 84, 109, 110, 0, 0, 0, 0, 0, 0, 0, 0, 0, 0, 0, 0, 0, 0, 0, 0, 0, 0, 0, 0, 0, 0, 0, 0, 0, 0, 0, 0, 0, 0, 0, 0, 0, 0, 0, 0, 0, 0, 0, 0, 0, 0, 0, 0, 115, 116, 77, 78, 0, 0, 0, 0, 0, 0, 0, 0, 0, 0, 0, 0, 0, 0, 0, 0, 0, 0, 0, 0, 0, 0, 0, 0, 0, 0, 0, 0, 0, 0, 0, 0, 0, 0, 0, 0, 0, 0, 0, 0, 0, 0, 0, 0, 83, 84, 109, 110, 0, 0, 0, 0, 0, 0, 0, 0, 0, 0, 0, 0, 0, 0, 0, 0, 0, 0, 0, 0, 0, 0, 0, 0, 0, 0, 0, 0, 0, 0, 0, 0, 0, 0, 0, 0, 0, 0, 0, 0, 0, 0, 0, 0, 115, 116, 77, 78, 0, 0, 0, 0, 0, 0, 0, 0, 0, 0, 0, 0, 0, 0, 0, 0, 0, 0, 0, 0, 0, 0, 0, 0, 0, 0, 0, 0, 0, 0, 0, 0, 0, 0, 0, 0, 0, 0, 0, 0, 0, 0, 0, 0, 83, 84, 109, 110, 0, 0, 0, 0, 0, 0, 0, 0, 0, 0, 0, 0, 0, 0, 0, 0, 0, 0, 0, 0, 0, 0, 0, 0, 0, 0, 0, 0, 0, 0, 0, 0, 0, 0, 0, 0, 0, 0, 0, 0, 0, 0, 0, 0, 115, 116, 77, 78, 0, 0, 0, 0, 0, 0, 0, 0, 0, 0, 0, 0, 0, 0, 0, 0, 0, 0, 0, 0, 0, 0, 0, 0, 0, 0, 0, 0, 0, 0, 0, 0, 0, 0, 0, 0, 0, 0, 0, 0, 0, 0, 0, 0, 83, 84, 109, 110, 0, 0, 141, 142, 135, 136, 135, 136, 135, 136, 135, 136, 135, 136, 135, 136, 135, 136, 135, 136, 135, 136, 135, 136, 135, 136, 135, 136, 135, 136, 135, 136, 135, 136, 135, 136, 135, 136, 135, 136, 2147483790, 2147483789, 0, 0, 115, 116, 77, 78, 0, 0, 173, 174, 167, 168, 167, 168, 167, 168, 167, 168, 167, 168, 167, 168, 167, 168, 167, 168, 167, 168, 167, 168, 167, 168, 167, 168, 167, 168, 167, 168, 167, 168, 167, 168, 167, 168, 167, 168, 2147483822, 2147483821, 0, 0, 83, 84, 109, 110, 0, 0, 755, 756, 757, 758, 755, 756, 757, 758, 755, 756, 757, 758, 755, 756, 757, 758, 755, 756, 757, 758, 755, 756, 757, 758, 755, 756, 757, 758, 755, 756, 757, 758, 755, 756, 757, 758, 755, 756, 757, 0, 0, 0, 115, 116, 77, 78, 0, 0, 755, 756, 757, 758, 755, 756, 757, 758, 755, 756, 757, 758, 755, 756, 757, 758, 755, 756, 757, 758, 755, 756, 757, 758, 755, 756, 757, 758, 755, 756, 757, 758, 755, 756, 757, 758, 755, 756, 757, 0, 0, 0, 83, 84, 109, 110, 0, 0, 0, 0, 0, 0, 0, 0, 0, 0, 0, 0, 0, 0, 0, 0, 0, 0, 0, 0, 0, 0, 0, 0, 0, 0, 0, 0, 0, 0, 0, 0, 0, 0, 0, 0, 0, 0, 0, 0, 0, 0, 0, 0, 115, 116, 3221225524, 3221225523, 0, 7, 8, 7, 8, 7, 8, 7, 8, 7, 8, 7, 8, 7, 8, 7, 8, 7, 8, 135, 136, 137, 138, 7, 8, 7, 8, 7, 8, 7, 8, 7, 8, 7, 8, 7, 8, 7, 8, 7, 8, 7, 8, 0, 1073741875, 1073741876, 3221225492, 3221225491, 104, 39, 40, 39, 40, 39, 40, 39, 40, 39, 40, 39, 40, 39, 40, 39, 40, 39, 40, 167, 168, 169, 170, 39, 40, 39, 40, 39, 40, 39, 40, 39, 40, 39, 40, 39, 40, 39, 40, 39, 40, 39, 40, 104, 1073741843, 1073741844, 2147483956, 535, 535, 535, 535, 535, 535, 535, 535, 535, 535, 535, 535, 535, 535, 535, 535, 535, 535, 535, 535, 231, 232, 233, 234, 235, 236, 535, 535, 535, 535, 535, 535, 535, 535, 535, 535, 535, 535, 535, 535, 535, 535, 535, 535, 535, 535, 308, 2147483988, 535, 535, 535, 535, 535, 535, 535, 535, 535, 535, 535, 535, 535, 535, 535, 535, 535, 535, 535, 535, 263, 264, 265, 266, 267, 268, 535, 535, 535, 535, 535, 535, 535, 535, 535, 535, 535, 535, 535, 535, 535, 535, 535, 535, 535, 535, 340, 2147484020, 567, 567, 567, 567, 567, 567, 567, 567, 567, 567, 567, 567, 567, 567, 567, 567, 567, 567, 567, 567, 295, 296, 297, 298, 299, 300, 567, 567, 567, 567, 567, 567, 567, 567, 567, 567, 567, 567, 567, 567, 567, 567, 567, 567, 567, 567, 372, 2147484052, 599, 599, 599, 599, 599, 599, 599, 599, 599, 599, 599, 599, 599, 599, 599, 599, 599, 599, 599, 599, 327, 328, 329, 330, 331, 332, 599, 599, 599, 599, 599, 599, 599, 599, 599, 599, 599, 599, 599, 599, 599, 599, 599, 599, 599, 599, 404, 2147484084, 631, 631, 631, 631, 631, 631, 631, 631, 631, 631, 631, 631, 631, 631, 631, 631, 631, 631, 631, 631, 359, 360, 361, 362, 363, 364, 631, 631, 631, 631, 631, 631, 631, 631, 631, 631, 631, 631, 631, 631, 631, 631, 631, 631, 631, 631, 436],
         "height":50,
         "name":"decor",
         "opacity":1,
         "type":"tilelayer",
         "visible":true,
         "width":48,
         "x":0,
         "y":0
        }, 
        {
         "data":[0, 0, 0, 0, 0, 0, 0, 0, 0, 0, 0, 0, 0, 0, 0, 0, 0, 0, 0, 0, 0, 0, 0, 0, 0, 0, 0, 0, 0, 0, 0, 0, 0, 0, 0, 0, 0, 0, 0, 0, 0, 0, 0, 0, 0, 0, 0, 0, 0, 0, 0, 0, 0, 0, 0, 0, 0, 0, 0, 0, 0, 0, 0, 0, 0, 0, 0, 0, 0, 0, 0, 0, 0, 0, 0, 0, 0, 0, 0, 0, 0, 0, 0, 0, 0, 0, 0, 0, 0, 0, 0, 0, 0, 0, 0, 0, 0, 0, 0, 0, 0, 0, 0, 0, 0, 0, 0, 0, 0, 0, 0, 0, 0, 0, 0, 0, 0, 0, 0, 0, 0, 0, 0, 0, 0, 0, 0, 0, 0, 0, 0, 0, 0, 0, 0, 0, 0, 0, 0, 0, 0, 0, 0, 0, 0, 0, 0, 0, 0, 0, 0, 0, 0, 0, 0, 0, 0, 0, 0, 0, 0, 0, 0, 0, 0, 0, 0, 0, 0, 0, 0, 0, 0, 0, 0, 0, 0, 0, 0, 0, 0, 0, 0, 0, 0, 0, 0, 0, 0, 0, 0, 0, 0, 0, 0, 0, 0, 0, 0, 0, 0, 0, 0, 0, 0, 0, 0, 0, 0, 0, 0, 0, 0, 0, 0, 0, 0, 0, 0, 0, 0, 0, 0, 0, 0, 0, 0, 0, 0, 0, 0, 0, 0, 0, 0, 0, 0, 0, 0, 0, 0, 0, 0, 0, 0, 0, 0, 0, 0, 0, 0, 0, 0, 0, 0, 0, 0, 0, 0, 0, 0, 0, 0, 0, 0, 0, 0, 0, 0, 0, 0, 0, 0, 0, 0, 0, 0, 0, 0, 0, 0, 0, 0, 0, 0, 0, 0, 0, 0, 0, 0, 0, 0, 0, 0, 0, 0, 0, 0, 0, 0, 0, 0, 0, 0, 0, 0, 0, 0, 0, 0, 0, 0, 0, 0, 0, 0, 0, 0, 0, 0, 0, 0, 0, 0, 0, 517, 518, 0, 0, 0, 0, 0, 0, 0, 0, 0, 0, 0, 0, 0, 0, 0, 0, 0, 0, 0, 0, 0, 0, 0, 0, 0, 0, 0, 0, 0, 0, 0, 0, 0, 0, 0, 0, 0, 0, 0, 0, 0, 0, 0, 0, 0, 0, 549, 550, 0, 0, 0, 0, 0, 0, 0, 0, 0, 0, 0, 0, 0, 0, 0, 0, 0, 0, 0, 0, 0, 0, 0, 0, 0, 0, 0, 0, 389, 390, 0, 0, 0, 0, 389, 390, 0, 0, 0, 0, 0, 0, 0, 0, 0, 0, 581, 582, 0, 0, 0, 0, 0, 0, 0, 0, 0, 0, 0, 0, 0, 0, 0, 0, 0, 0, 0, 0, 0, 0, 0, 0, 0, 0, 0, 0, 421, 422, 0, 0, 0, 0, 421, 422, 0, 0, 0, 0, 0, 0, 0, 0, 0, 0, 613, 614, 0, 0, 0, 0, 0, 0, 0, 0, 0, 0, 0, 0, 0, 0, 0, 0, 0, 0, 0, 0, 0, 0, 0, 0, 0, 0, 0, 0, 453, 454, 0, 0, 0, 0, 453, 454, 0, 0, 0, 0, 0, 0, 0, 0, 0, 0, 645, 646, 0, 0, 0, 0, 0, 0, 0, 0, 0, 0, 0, 0, 0, 0, 0, 0, 0, 0, 0, 0, 0, 0, 0, 0, 0, 0, 0, 0, 485, 486, 0, 0, 0, 0, 485, 486, 0, 0, 0, 0, 0, 0, 0, 0, 0, 0, 677, 678, 0, 0, 0, 0, 0, 0, 0, 0, 0, 0, 0, 0, 0, 0, 0, 0, 0, 0, 0, 0, 0, 0, 0, 0, 0, 0, 0, 0, 0, 0, 0, 0, 0, 0, 707, 708, 0, 0, 0, 0, 0, 0, 0, 0, 0, 0, 0, 0, 0, 0, 0, 0, 0, 0, 0, 0, 0, 0, 0, 0, 0, 0, 0, 0, 0, 0, 0, 0, 0, 0, 0, 0, 0, 0, 0, 0, 0, 0, 0, 0, 0, 0, 739, 740, 0, 0, 0, 0, 0, 0, 0, 0, 0, 0, 0, 0, 0, 0, 0, 0, 0, 0, 0, 0, 0, 0, 0, 0, 0, 0, 0, 0, 0, 0, 0, 0, 0, 0, 0, 0, 0, 0, 0, 0, 0, 0, 0, 0, 0, 0, 0, 0, 0, 0, 0, 0, 0, 0, 0, 0, 0, 0, 0, 0, 0, 0, 0, 0, 0, 0, 0, 0, 0, 0, 0, 0, 0, 0, 0, 0, 0, 0, 0, 0, 0, 0, 0, 0, 0, 0, 0, 0, 0, 0, 0, 0, 0, 0, 0, 0, 0, 0, 0, 0, 0, 0, 0, 0, 0, 0, 0, 0, 0, 0, 0, 0, 0, 0, 0, 0, 0, 0, 0, 0, 0, 0, 0, 0, 0, 0, 0, 0, 0, 0, 0, 0, 0, 0, 0, 0, 0, 0, 0, 0, 0, 0, 0, 0, 0, 0, 0, 0, 0, 0, 0, 0, 0, 0, 0, 0, 0, 0, 0, 0, 0, 0, 0, 0, 0, 0, 0, 0, 0, 0, 0, 0, 0, 0, 0, 0, 0, 0, 0, 0, 0, 0, 0, 0, 0, 0, 0, 0, 0, 0, 0, 0, 0, 0, 0, 0, 0, 0, 0, 0, 0, 0, 0, 0, 0, 0, 0, 0, 0, 0, 0, 0, 0, 0, 0, 0, 0, 0, 0, 0, 0, 0, 0, 0, 0, 0, 0, 0, 0, 0, 0, 0, 0, 0, 0, 0, 0, 0, 0, 0, 0, 0, 0, 0, 0, 0, 0, 0, 0, 0, 0, 0, 0, 0, 0, 0, 0, 0, 0, 0, 0, 0, 0, 0, 0, 0, 0, 0, 0, 0, 0, 0, 0, 0, 0, 0, 0, 0, 0, 0, 0, 0, 0, 0, 0, 0, 0, 0, 0, 0, 0, 0, 0, 0, 0, 0, 0, 0, 0, 0, 0, 0, 0, 0, 0, 0, 0, 0, 0, 0, 0, 0, 0, 0, 0, 0, 0, 0, 0, 0, 0, 0, 0, 0, 0, 0, 0, 0, 0, 0, 0, 0, 0, 0, 0, 0, 0, 0, 0, 0, 0, 0, 0, 0, 0, 0, 0, 0, 0, 0, 0, 0, 0, 0, 0, 0, 0, 0, 0, 0, 0, 0, 0, 0, 0, 0, 0, 0, 0, 0, 0, 0, 0, 0, 0, 0, 0, 0, 0, 0, 0, 0, 0, 0, 0, 0, 0, 0, 0, 0, 0, 0, 0, 0, 0, 0, 0, 0, 0, 0, 0, 0, 0, 0, 0, 0, 0, 0, 0, 0, 0, 0, 0, 0, 0, 0, 0, 0, 0, 0, 0, 0, 0, 0, 0, 0, 0, 0, 0, 0, 0, 0, 0, 0, 0, 0, 0, 0, 0, 0, 0, 0, 0, 0, 0, 0, 0, 0, 0, 0, 0, 0, 0, 0, 0, 0, 0, 0, 0, 0, 0, 0, 0, 0, 0, 0, 0, 0, 0, 0, 0, 0, 0, 0, 0, 0, 0, 0, 0, 0, 0, 0, 0, 0, 0, 0, 0, 0, 0, 0, 0, 0, 0, 0, 0, 0, 0, 0, 0, 0, 0, 0, 0, 0, 0, 0, 0, 0, 0, 0, 0, 0, 0, 0, 0, 0, 0, 0, 0, 0, 0, 0, 0, 0, 0, 0, 0, 0, 0, 0, 0, 0, 0, 0, 0, 0, 0, 0, 0, 0, 0, 0, 0, 0, 0, 0, 0, 0, 0, 0, 0, 0, 0, 0, 0, 0, 0, 0, 0, 0, 0, 0, 0, 0, 0, 0, 0, 0, 0, 0, 0, 0, 0, 0, 0, 0, 0, 0, 0, 0, 0, 0, 0, 0, 0, 0, 0, 0, 0, 0, 0, 0, 0, 0, 0, 0, 0, 0, 0, 0, 0, 0, 0, 0, 0, 0, 0, 0, 0, 0, 0, 0, 0, 0, 0, 0, 0, 0, 0, 0, 0, 0, 0, 0, 0, 0, 0, 0, 0, 0, 0, 0, 0, 0, 0, 0, 0, 0, 0, 0, 0, 0, 0, 0, 0, 0, 0, 0, 0, 0, 0, 0, 0, 0, 0, 0, 0, 0, 0, 0, 0, 0, 0, 0, 0, 0, 0, 0, 0, 0, 0, 0, 0, 0, 0, 0, 0, 0, 0, 0, 0, 0, 0, 0, 0, 0, 0, 0, 0, 0, 0, 0, 0, 0, 0, 0, 0, 0, 0, 0, 0, 0, 0, 0, 0, 0, 0, 0, 0, 0, 0, 0, 0, 0, 0, 0, 0, 0, 0, 0, 0, 0, 0, 0, 0, 0, 0, 0, 0, 0, 0, 0, 0, 0, 0, 0, 0, 0, 0, 0, 0, 0, 0, 0, 0, 0, 0, 0, 0, 0, 0, 0, 0, 0, 0, 0, 0, 0, 0, 0, 0, 0, 0, 0, 0, 0, 0, 0, 0, 0, 0, 0, 0, 0, 0, 0, 0, 0, 0, 0, 0, 0, 0, 0, 0, 0, 0, 0, 0, 0, 0, 0, 0, 0, 0, 0, 0, 0, 0, 0, 0, 0, 0, 0, 0, 0, 0, 0, 0, 0, 0, 0, 0, 0, 0, 0, 0, 0, 0, 0, 0, 0, 0, 0, 0, 0, 0, 0, 0, 0, 0, 0, 0, 0, 0, 0, 0, 0, 0, 0, 0, 0, 0, 0, 0, 0, 0, 0, 0, 0, 0, 0, 0, 0, 0, 0, 0, 0, 0, 0, 0, 0, 0, 0, 0, 0, 0, 0, 0, 0, 0, 0, 0, 0, 0, 0, 0, 0, 0, 0, 0, 0, 0, 0, 0, 0, 0, 0, 0, 0, 0, 0, 0, 0, 0, 0, 0, 0, 0, 0, 0, 0, 0, 0, 0, 0, 0, 0, 0, 0, 0, 0, 0, 0, 0, 0, 0, 0, 0, 0, 0, 0, 0, 0, 0, 0, 0, 0, 0, 0, 0, 0, 0, 0, 0, 0, 0, 0, 0, 0, 0, 0, 0, 0, 0, 0, 0, 0, 0, 0, 0, 0, 0, 0, 0, 0, 0, 0, 0, 0, 0, 0, 0, 0, 0, 0, 0, 0, 0, 0, 0, 0, 0, 0, 0, 0, 0, 0, 0, 0, 0, 0, 0, 0, 0, 0, 0, 0, 0, 0, 0, 0, 0, 0, 0, 0, 0, 0, 0, 0, 0, 0, 0, 0, 0, 0, 0, 0, 0, 0, 0, 0, 0, 0, 0, 0, 0, 0, 0, 0, 0, 0, 0, 0, 0, 0, 0, 0, 0, 0, 0, 0, 0, 0, 0, 0, 0, 0, 0, 0, 0, 0, 0, 0, 0, 0, 0, 0, 0, 0, 0, 0, 0, 0, 0, 0, 0, 0, 0, 0, 0, 0, 0, 0, 0, 0, 0, 0, 0, 0, 0, 0, 0, 0, 0, 0, 0, 0, 0, 0, 0, 0, 0, 0, 0, 0, 0, 0, 0, 0, 0, 0, 0, 0, 0, 0, 0, 0, 0, 0, 0, 0, 0, 0, 0, 0, 0, 0, 0, 0, 0, 0, 0, 0, 0, 0, 0, 0, 0, 0, 0, 0, 0, 0, 0, 0, 0, 0, 0, 0, 0, 0, 0, 0, 0, 0, 0, 0, 0, 0, 0, 0, 0, 0, 0, 0, 0, 0, 0, 0, 0, 0, 0, 0, 0, 0, 0, 0, 0, 0, 0, 0, 0, 0, 0, 0, 0, 0, 0, 0, 0, 0, 0, 0, 0, 0, 0, 0, 0, 0, 0, 0, 0, 0, 0, 0, 0, 0, 0, 0, 0, 0, 0, 0, 0, 0, 0, 0, 0, 0, 0, 0, 0, 0, 0, 0, 0, 0, 0, 0, 0, 0, 0, 0, 0, 0, 0, 0, 0, 0, 0, 0, 0, 0, 0, 0, 0, 0, 0, 0, 0, 0, 0, 0, 0, 0, 0, 0, 0, 0, 0, 0, 0, 0, 0, 0, 0, 0, 0, 0, 0, 0, 0, 0, 0, 0, 0, 0, 0, 0, 0, 0, 0, 0, 0, 0, 0, 0, 0, 0, 0, 0, 0, 0, 0, 0, 0, 0, 0, 0, 0, 0, 0, 0, 0, 0, 0, 0, 0, 0, 0, 0, 0, 0, 0, 0, 0, 0, 0, 0, 0, 0, 0, 0, 0, 0, 0, 0, 0, 0, 0, 0, 0, 0, 0, 0, 0, 0, 0, 0, 0, 0, 0, 0, 0, 0, 0, 0, 0, 0, 0, 0, 0, 0, 0, 0, 0, 0, 0, 0, 0, 0, 0, 0, 0, 0, 0, 0, 0, 0, 0, 0, 0, 0, 0, 0, 0, 0, 0, 0, 0, 0, 0, 0, 0, 0, 0, 0, 0, 0, 0, 0, 0, 0, 0, 0, 0, 0, 0, 0, 0, 0, 0, 0, 0, 0, 0, 0, 0, 0, 0, 0, 0, 0, 0, 0, 0, 0, 0, 0, 0, 0, 0, 0, 0, 0, 0, 0, 0, 0, 0, 0, 0, 0, 0, 0, 0, 0, 0, 0, 0, 0, 0, 0, 0, 0, 0, 0, 0, 0, 0, 0, 0, 0, 0, 0, 0, 0, 0, 0, 0, 0, 0, 0, 0, 0, 0, 0, 0, 0, 0, 0, 0, 0, 0, 0, 0, 0, 0, 0, 0, 0, 0, 0, 0, 0, 0, 0, 0, 0, 0, 0, 0, 0, 0, 0, 0, 0, 463, 464, 0, 0, 0, 0, 0, 0, 0, 0, 463, 464, 0, 0, 0, 0, 0, 0, 0, 0, 0, 0, 0, 0, 0, 0, 0, 0, 0, 0, 0, 0, 0, 0, 0, 0, 0, 0, 0, 0, 0, 0, 0, 0, 0, 0, 0, 0, 495, 496, 0, 0, 0, 0, 0, 0, 0, 0, 495, 496, 0, 0, 0, 0, 0, 0, 0, 0, 0, 0, 0, 0, 0, 0, 0, 0, 0, 0, 0, 0, 0, 0, 0, 0, 0, 0, 0, 0, 0, 0, 0, 0, 0, 0, 0, 0, 527, 528, 0, 0, 0, 0, 0, 0, 0, 0, 527, 528, 0, 0, 0, 0, 0, 0, 0, 0, 0, 0, 0, 0, 0, 0, 0, 0, 0, 0, 0, 0, 0, 0, 0, 0, 0, 0, 0, 0, 0, 0, 0, 0, 0, 0, 0, 0, 559, 560, 0, 0, 0, 0, 0, 0, 0, 0, 559, 560, 0, 0, 0, 0, 0, 0, 0, 0, 0, 0, 0, 0, 0, 0, 0, 0, 0, 0, 0, 0, 0, 0, 0, 0, 0, 0, 0, 0, 0, 0, 0, 0, 0, 0, 0, 0, 591, 592, 0, 0, 0, 0, 0, 0, 0, 0, 591, 592, 0, 0, 0, 0, 0, 0, 0, 0, 0, 0, 0, 0, 0, 0, 0, 0, 0, 0, 0, 0, 0, 0, 0, 0, 0, 0, 0, 0, 0, 0, 0, 0, 0, 0, 0, 0, 0, 0, 0, 0, 0, 0, 0, 0, 0, 0, 0, 0, 0, 0, 0, 0, 0, 0, 0, 0, 0, 0, 0, 0, 0, 0, 0, 0, 0, 0],
         "height":50,
         "name":"decor2",
         "opacity":1,
         "type":"tilelayer",
         "visible":true,
         "width":48,
         "x":0,
         "y":0
        }, 
        {
         "draworder":"topdown",
         "name":"entities",
         "objects":[
                {
                 "gid":1805,
                 "height":16,
                 "id":24,
                 "name":"hero",
                 "rotation":0,
                 "type":"",
                 "visible":true,
                 "width":16,
                 "x":374.666666666667,
                 "y":576
                }],
         "offsetx":1.33333333333337,
         "offsety":0.666666666666742,
         "opacity":1,
         "properties":
            {
             "playerStart":""
            },
         "propertytypes":
            {
             "playerStart":"string"
            },
         "type":"objectgroup",
         "visible":true,
         "x":0,
         "y":0
        }],
 "nextobjectid":26,
 "orientation":"orthogonal",
 "renderorder":"right-down",
 "tiledversion":"1.1.3",
 "tileheight":16,
 "tilesets":[
        {
         "columns":32,
         "firstgid":1,
         "image":"..\/tiles\/Castle2.png",
         "imageheight":512,
         "imagewidth":512,
         "margin":0,
         "name":"Town",
         "spacing":0,
         "tilecount":1024,
         "tileheight":16,
         "tilewidth":16
        }, 
        {
         "columns":30,
         "firstgid":1025,
         "image":"..\/tiles\/tiles.png",
         "imageheight":560,
         "imagewidth":480,
         "margin":0,
         "name":"hero",
         "spacing":0,
         "tilecount":1050,
         "tileheight":16,
         "tilewidth":16
        }],
 "tilewidth":16,
 "type":"map",
 "version":1,
 "width":48
}